<svg width="97" height="97" viewBox="0 0 97 97" fill="none" xmlns="http://www.w3.org/2000/svg">
<circle cx="48.3144" cy="48.529" r="48.1513" fill="black"/>
<path d="M60.9077 49.6401L41.6472 35.1947V64.0855L60.9077 49.6401Z" stroke="white" stroke-width="0.857895"/>
</svg>
