<svg width="150" height="141" viewBox="0 0 150 141" fill="none" xmlns="http://www.w3.org/2000/svg">
<path d="M150 16.93C99.3469 -15.1878 32.1917 -0.257147 0 50.2791L91.7116 108.434L150 16.93Z" fill="#1A98D5"/>
<path d="M36.1445 135.037C54.452 146.281 78.7231 141.054 90.3614 123.365L57.2144 103.012L36.1445 135.037Z" fill="#D3D800"/>
<path fill-rule="evenodd" clip-rule="evenodd" d="M106.774 55.1248C82.4402 39.0711 49.9355 46.151 34.1747 70.9389L27.1089 66.2776C45.397 37.5149 83.1141 29.2993 111.35 47.9277M111.35 47.9277C139.587 66.556 147.65 104.972 129.364 133.735L122.298 129.074C138.057 104.286 131.108 71.1785 106.774 55.1248" fill="#D1D700"/>
<path fill-rule="evenodd" clip-rule="evenodd" d="M96.7176 70.1572C80.6277 59.7158 59.1391 64.3188 48.7201 80.4401L41.5664 75.7981C54.5447 55.7168 81.3108 49.9846 101.35 62.9892C121.391 75.9914 127.112 102.812 114.133 122.892L106.98 118.249C117.4 102.127 112.806 80.595 96.7181 70.1575L96.7176 70.1572Z" fill="#D1D700"/>
</svg>
