<svg width="12" height="20" viewBox="0 0 12 20" fill="none" xmlns="http://www.w3.org/2000/svg">
<path fill-rule="evenodd" clip-rule="evenodd" d="M8.81035 1.23549C8.32987 1.03476 7.81432 0.931396 7.29359 0.931396C6.77286 0.931396 6.25732 1.03476 5.77683 1.23549C5.29635 1.43622 4.86049 1.73033 4.49452 2.10077C4.12855 2.47121 3.83975 2.9106 3.64486 3.39348C3.45054 3.87497 3.35344 4.39014 3.35914 4.9093L3.36524 13.7492L3.36532 13.7548C3.37622 14.4448 3.65794 15.1027 4.14968 15.5868C4.64142 16.0708 5.30375 16.3421 5.99375 16.3421C6.68374 16.3421 7.34608 16.0708 7.83782 15.5868C8.32956 15.1027 8.61127 14.4448 8.62217 13.7548L8.62226 13.7489V7.00003C8.62226 6.58582 8.28648 6.25003 7.87226 6.25003C7.45805 6.25003 7.12226 6.58582 7.12226 7.00003V13.7363C7.11626 14.0307 6.99548 14.3111 6.78557 14.5178C6.57442 14.7256 6.29002 14.8421 5.99375 14.8421C5.69747 14.8421 5.41308 14.7256 5.20193 14.5178C4.99196 14.3111 4.87117 14.0305 4.86523 13.7361L4.85914 4.89991L4.85908 4.89562C4.85518 4.57343 4.91526 4.25367 5.03585 3.95487C5.15644 3.65608 5.33514 3.38419 5.5616 3.15497C5.78805 2.92576 6.05775 2.74377 6.35506 2.61956C6.65237 2.49535 6.97138 2.4314 7.29359 2.4314C7.61581 2.4314 7.93481 2.49535 8.23213 2.61956C8.52944 2.74377 8.79914 2.92576 9.02559 3.15497C9.25204 3.38419 9.43074 3.65608 9.55134 3.95487C9.67193 4.25367 9.73201 4.57343 9.7281 4.89562L9.72805 4.90017V13.808L9.72812 13.8134C9.73527 14.3073 9.64416 14.7977 9.46009 15.2561C9.27602 15.7145 9.00265 16.1318 8.65589 16.4836C8.30913 16.8354 7.8959 17.1148 7.4402 17.3055C6.98451 17.4961 6.49546 17.5943 6.00148 17.5943C5.5075 17.5943 5.01845 17.4961 4.56276 17.3055C4.10707 17.1148 3.69383 16.8354 3.34707 16.4836C3.00031 16.1318 2.72695 15.7145 2.54288 15.2561C2.3588 14.7977 2.26769 14.3073 2.27484 13.8134L2.27492 13.808V5.48785C2.27492 5.07363 1.93913 4.73785 1.52492 4.73785C1.11071 4.73785 0.774919 5.07363 0.774919 5.48785V13.7973C0.765668 14.4881 0.893454 15.1739 1.15091 15.8151C1.40907 16.458 1.79245 17.0431 2.27877 17.5365C2.76509 18.03 3.34464 18.4218 3.98373 18.6892C4.62282 18.9566 5.30869 19.0943 6.00148 19.0943C6.69427 19.0943 7.38015 18.9566 8.01924 18.6892C8.65833 18.4218 9.23788 18.03 9.7242 17.5365C10.2105 17.0431 10.5939 16.458 10.8521 15.8151C11.1095 15.1739 11.2373 14.4881 11.228 13.7973V4.90903C11.2337 4.38996 11.1366 3.87489 10.9423 3.39348C10.7474 2.9106 10.4586 2.47121 10.0927 2.10077C9.72669 1.73033 9.29083 1.43622 8.81035 1.23549Z" fill="white"/>
</svg>
