<svg width="16" height="16" viewBox="0 0 16 16" fill="none" xmlns="http://www.w3.org/2000/svg">
<path d="M8.3338 4.04004C7.31183 4.04004 6.33172 4.44601 5.60908 5.16865C4.88644 5.89129 4.48047 6.87141 4.48047 7.89337C4.48047 8.91534 4.88644 9.89545 5.60908 10.6181C6.33172 11.3407 7.31183 11.7467 8.3338 11.7467C9.35577 11.7467 10.3359 11.3407 11.0585 10.6181C11.7812 9.89545 12.1871 8.91534 12.1871 7.89337C12.1871 6.87141 11.7812 5.89129 11.0585 5.16865C10.3359 4.44601 9.35577 4.04004 8.3338 4.04004ZM8.3338 10.3959C7.66988 10.3959 7.03314 10.1321 6.56368 9.66266C6.09421 9.1932 5.83047 8.55646 5.83047 7.89254C5.83047 7.22861 6.09421 6.59188 6.56368 6.12242C7.03314 5.65295 7.66988 5.38921 8.3338 5.38921C8.99773 5.38921 9.63446 5.65295 10.1039 6.12242C10.5734 6.59188 10.8371 7.22861 10.8371 7.89254C10.8371 8.55646 10.5734 9.1932 10.1039 9.66266C9.63446 10.1321 8.99773 10.3959 8.3338 10.3959Z" fill="white"/>
<path d="M12.3397 4.79667C12.8359 4.79667 13.2381 4.39447 13.2381 3.89833C13.2381 3.4022 12.8359 3 12.3397 3C11.8436 3 11.4414 3.4022 11.4414 3.89833C11.4414 4.39447 11.8436 4.79667 12.3397 4.79667Z" fill="white"/>
<path d="M15.4451 2.59273C15.2522 2.09455 14.9574 1.64213 14.5795 1.26444C14.2017 0.886757 13.7492 0.592121 13.2509 0.399395C12.6679 0.180525 12.0519 0.0621788 11.4293 0.0493945C10.6268 0.0143945 10.3726 0.00439453 8.3376 0.00439453C6.3026 0.00439453 6.04177 0.00439445 5.24594 0.0493945C4.62376 0.0615252 4.00823 0.179896 3.42594 0.399395C2.92755 0.591896 2.47491 0.886453 2.09705 1.26417C1.71919 1.64188 1.42446 2.09441 1.23177 2.59273C1.01286 3.17574 0.894783 3.79176 0.882604 4.41439C0.846771 5.21606 0.835938 5.47023 0.835938 7.50606C0.835938 9.54106 0.835937 9.80023 0.882604 10.5977C0.895104 11.2211 1.0126 11.8361 1.23177 12.4202C1.425 12.9184 1.72002 13.3707 2.09797 13.7484C2.47592 14.126 2.92849 14.4207 3.42677 14.6136C4.00797 14.8412 4.62375 14.968 5.2476 14.9886C6.0501 15.0236 6.30427 15.0344 8.33927 15.0344C10.3743 15.0344 10.6351 15.0344 11.4309 14.9886C12.0535 14.9759 12.6695 14.8578 13.2526 14.6394C13.7507 14.4462 14.2031 14.1513 14.5809 13.7735C14.9587 13.3958 15.2536 12.9434 15.4468 12.4452C15.6659 11.8619 15.7834 11.2469 15.7959 10.6236C15.8318 9.8219 15.8426 9.56773 15.8426 7.5319C15.8426 5.49606 15.8426 5.23773 15.7959 4.44023C15.7862 3.80879 15.6675 3.18377 15.4451 2.59273ZM14.4301 10.5361C14.4247 11.0163 14.3371 11.4921 14.1709 11.9427C14.0458 12.2668 13.8542 12.5611 13.6085 12.8066C13.3628 13.0522 13.0684 13.2436 12.7443 13.3686C12.2986 13.5339 11.8279 13.6216 11.3526 13.6277C10.5609 13.6644 10.3376 13.6736 8.3076 13.6736C6.27594 13.6736 6.06844 13.6736 5.26177 13.6277C4.78671 13.6219 4.31621 13.5342 3.87094 13.3686C3.54568 13.2444 3.25011 13.0533 3.00335 12.8077C2.75659 12.5621 2.56413 12.2674 2.43844 11.9427C2.27464 11.4969 2.18703 11.0268 2.17927 10.5519C2.14344 9.76023 2.1351 9.5369 2.1351 7.5069C2.1351 5.47606 2.1351 5.26856 2.17927 4.46106C2.18466 3.98108 2.27232 3.50558 2.43844 3.05523C2.6926 2.39773 3.21344 1.88023 3.87094 1.62856C4.31643 1.46368 4.78679 1.37603 5.26177 1.36939C6.05427 1.33356 6.27677 1.32356 8.3076 1.32356C10.3384 1.32356 10.5468 1.32356 11.3526 1.36939C11.8279 1.37511 12.2987 1.46279 12.7443 1.62856C13.0684 1.75379 13.3627 1.9454 13.6084 2.19109C13.8541 2.43678 14.0457 2.73112 14.1709 3.05523C14.3347 3.50102 14.4223 3.97119 14.4301 4.44606C14.4659 5.23856 14.4751 5.46106 14.4751 7.4919C14.4751 9.5219 14.4751 9.74023 14.4393 10.5369H14.4301V10.5361Z" fill="white"/>
</svg>
