<svg width="1900" height="505" viewBox="0 0 1900 505" fill="none" xmlns="http://www.w3.org/2000/svg">
<path d="M1432 272.703C1367.17 231.532 1281.2 250.668 1240 315.452L1357.39 390L1432 272.703Z" fill="#1A98D5"/>
<path d="M1900 459.662C1860.91 455.406 1821.02 471.799 1797 505H1900V459.662Z" fill="#D3D800"/>
<path d="M492 237.555L683.047 355C715.826 302.809 699.634 234.204 646.878 201.776C594.12 169.341 524.779 185.361 492 237.555Z" fill="#1A98D5"/>
<path d="M553.213 348L452 505H586.326C586.546 504.665 586.773 504.335 586.991 503.996C620.768 451.598 605.65 381.756 553.213 348Z" fill="#D3D800"/>
<path d="M7 0L161.957 100C181.843 69.0797 184.809 32.115 173.226 0H7Z" fill="#D3D800"/>
<path d="M457.652 286L334 475.981C387.005 509.779 457.652 494.646 491.795 442.183C525.939 389.725 510.657 319.795 457.652 286Z" fill="#D3D800"/>
<path d="M771.59 0L643 196.988C702.028 234.523 780.703 217.717 818.728 159.466C852.516 107.705 842.837 40.6348 798.848 0H771.59Z" fill="#D3D800"/>
<path d="M977.641 146L859 71.4167L1052 27L977.641 146Z" fill="#D3D800"/>
<path d="M1014 0L1323.69 199L1411 66.5295L1307.47 0H1014Z" fill="#1A98D5"/>
<path d="M1406.25 224.745C1397.4 182.038 1424.87 140.249 1467.63 131.405C1485.73 127.658 1503.66 130.419 1519 138.095L1410.66 67L1324 198.777L1440.17 275L1440.32 274.779C1423.38 263.679 1410.68 246.129 1406.25 224.745Z" fill="#D3D800"/>
<path d="M1087.71 150.805C1135.06 141.053 1181.39 171.323 1191.19 218.416C1195.34 238.351 1192.28 258.108 1183.77 275L1261 158.131L1114 64L1032 188.168L1032.25 188.333C1044.55 169.672 1064.01 155.685 1087.71 150.805Z" fill="#D3D800"/>
<path d="M1269.36 334C1237.27 382.711 1250.94 448.076 1299.9 480L1358 391.807L1269.36 334Z" fill="#D3D800"/>
<path d="M1433.4 272L1355 390.264L1462.61 460L1541 341.739L1433.4 272Z" fill="#D3D800"/>
<path d="M1571.01 100.713L1552.95 89L1494 177.971L1602 248C1552.33 215.795 1538.46 149.853 1571.01 100.713Z" fill="#D3D800"/>
<path d="M1718.05 70.5358L1764 0H1611.35L1553 89.5799L1570.86 101.361L1659.77 160L1718.05 70.5358Z" fill="#1A98D5"/>
<path d="M1763.52 0L1717.45 70.0055L1659 158.801L1748.17 217L1891 0H1763.52Z" fill="#D3D800"/>
<path d="M1849 282.786L1749.06 217C1716.9 266.274 1651.06 280.035 1602 247.74L1690.83 306.211L1790.77 372L1849 282.786Z" fill="#D3D800"/>
<path d="M1602 247.808C1650.71 279.594 1716.07 266.047 1748 217.549L1659.81 160L1602 247.808Z" fill="#1A98D5"/>
<path d="M1790 372.395L1601.83 248L1541 341.608L1541.02 341.62C1575.42 290.586 1644.21 276.635 1695.64 310.632C1747.05 344.622 1761.82 413.807 1729.15 465.984L1729.17 466L1790 372.395Z" fill="#1A98D5"/>
<path d="M1531.48 505L1463 459.803L1540.02 342L1787 505H1531.48Z" fill="#1A98D5"/>
<path d="M671 505L612.241 467L587 505H671Z" fill="#1A98D5"/>
<path d="M612 467.878C671.385 506.928 751.079 490.287 790 430.706L682.475 360L612 467.878Z" fill="#D3D800"/>
<path d="M1181.82 402L1298 478.137L1280.31 505H1114L1181.82 402Z" fill="#1A98D5"/>
<path d="M69.8483 236.79C103.108 186.346 171.117 172.317 221.75 205.451C221.859 205.523 221.964 205.596 222.072 205.669L254 157.239L161.947 97L-10 359.217V505H25.5988L101.632 388.328C101.525 388.256 101.415 388.19 101.308 388.118C50.6721 354.987 36.5918 287.234 69.8483 236.79Z" fill="#1A98D5"/>
<path d="M312.953 197L196 373.637C245.165 405.678 311.203 392.112 343.498 343.335C375.798 294.56 362.118 229.045 312.953 197Z" fill="#1A98D5"/>
<path d="M100.79 389L222 205.987C171.049 172.792 102.604 186.85 69.1359 237.387C35.6669 287.921 49.8399 355.806 100.79 389Z" fill="#D3D800"/>
<path d="M-10 358L50 266C27.1766 270.649 5.86169 282.781 -10 301.581V358Z" fill="#D3D800"/>
<path d="M45 473.757C87.6284 484.603 134.237 467.895 159.734 428.842C159.821 428.707 159.907 428.568 160 428.427L100.338 389L45 473.757Z" fill="#D3D800"/>
<path d="M1306.16 505C1336.78 492.316 1371.9 491.774 1403.63 505H1432.51L1462 460.08L1355.37 390L1280 505H1306.16Z" fill="#1A98D5"/>
<path d="M840.646 354L981 146.29C923.334 107.741 845.166 122.985 806.409 180.346C767.643 237.705 782.977 315.453 840.646 354Z" fill="#1A98D5"/>
<path d="M1468.6 125.769C1423.43 135.22 1394.4 179.879 1403.75 225.519C1407.83 245.387 1418.5 262.166 1432.99 274L1524 133.503C1507.55 124.864 1488.17 121.675 1468.6 125.769Z" fill="#1A98D5"/>
<path d="M339 0L534.993 126L618 0H339Z" fill="#1A98D5"/>
<path d="M618.242 152.553C609.391 109.676 636.868 67.7281 679.621 58.8488C697.724 55.0905 715.657 57.8623 731 65.562L631.462 0H618.857L536 126.484L652.162 203L652.312 202.775C635.372 191.632 622.679 174.012 618.242 152.553Z" fill="#D3D800"/>
<path d="M678.322 59.6523C635.375 68.4702 607.774 110.149 616.665 152.752C620.539 171.294 630.688 186.957 644.469 198L731 66.8702C715.361 58.8087 696.928 55.8281 678.322 59.6523Z" fill="#1A98D5"/>
<path d="M1814.35 233.334C1856.84 224.438 1884.15 182.386 1875.35 139.415C1870.36 115.059 1854.85 95.643 1834.61 85L1749 217.293C1766.67 231.739 1790.36 238.357 1814.35 233.334Z" fill="#1A98D5"/>
<path d="M311 505L332.1 475L381 505H311Z" fill="#1A98D5"/>
<path d="M248.413 417L191 505H311.238L332 473.286L248.413 417Z" fill="#D3D800"/>
<path d="M914 505L920.788 494.874C921.674 493.19 928.736 483.542 928.736 483.542C946.299 464.376 975.996 460.13 998.635 474.711L1019 487.815L1007.48 505H914Z" fill="#1A98D5"/>
<path d="M1119.43 421L1156 445.114L1116.81 505H1064.11L1119.43 421ZM1008 505L1019.65 487.195L1046.65 505H1008Z" fill="#D3D800"/>
<path d="M841.293 352.324L740 504H799.464L880.13 382.058L885 374.692C869.702 368.644 855.598 361.656 841.293 352.324C842.994 353.494 839.551 351.189 841.293 352.324Z" fill="#D3D800"/>
<path d="M1097 360.546L1140.55 389.4L1119.24 422.124L1155.29 445.996C1154.76 446.808 1240 315.931 1240 315.931L1182.75 278C1182.62 278.189 1182.51 278.379 1182.39 278.568C1181.82 279.471 1181.26 280.378 1180.68 281.277C1158.61 315.161 1129.7 341.791 1097 360.546Z" fill="#D3D800"/>
<path d="M841 353.494C841 353.494 866.156 369.733 884.491 376L955.12 268.432L1096.65 361.451C1096.89 361.316 1097.12 361.178 1097.36 361.045C1130.16 342.384 1159.15 315.891 1181.29 282.175C1181.87 281.285 1182.43 280.385 1183 279.486L1160.45 264.666L980.124 146L841.267 353.073L841 353.494Z" fill="#1A98D5"/>
<path d="M884 374.633C954.382 402.565 1032.87 396.156 1097 360.071L954.905 267L884 374.633Z" fill="#D3D800"/>
<path d="M554.039 348L313 197.074L345.955 145L587 295.925L554.039 348Z" fill="#D3D800"/>
<path d="M356.865 0L253 158.403L313.167 198L443 0H356.865Z" fill="#1A98D5"/>
</svg>
